<?xml version="1.0" encoding="UTF-8" standalone="no"?>
<!DOCTYPE svg PUBLIC "-//W3C//DTD SVG 1.1//EN"
 "http://www.w3.org/Graphics/SVG/1.1/DTD/svg11.dtd">
<!-- Generated by graphviz version 2.43.0 (0)
 -->
<!-- Title: G Pages: 1 -->
<svg width="169pt" height="300pt"
 viewBox="0.00 0.00 168.74 300.48" xmlns="http://www.w3.org/2000/svg" xmlns:xlink="http://www.w3.org/1999/xlink">
<g id="graph0" class="graph" transform="scale(1 1) rotate(0) translate(4 296.48)">
<title>G</title>
<polygon fill="white" stroke="transparent" points="-4,4 -4,-296.48 164.74,-296.48 164.74,4 -4,4"/>
<!-- node_74416 -->
<g id="node1" class="node">
<title>node_74416</title>
<polygon fill="none" stroke="#0000ff" stroke-dasharray="5,2" points="160.74,-292.48 28.74,-292.48 28.74,-254.48 160.74,-254.48 160.74,-292.48"/>
<text text-anchor="middle" x="94.74" y="-277.28" font-family="Times,serif" font-size="14.00" fill="#000000">page index.html</text>
<text text-anchor="middle" x="94.74" y="-262.28" font-family="Times,serif" font-size="14.00" fill="#000000">74416</text>
</g>
<!-- node_74386 -->
<g id="node4" class="node">
<title>node_74386</title>
<ellipse fill="none" stroke="#000000" cx="53.74" cy="-191.61" rx="53.98" ry="26.74"/>
<text text-anchor="middle" x="53.74" y="-195.41" font-family="Times,serif" font-size="14.00" fill="#000000">toc.html</text>
<text text-anchor="middle" x="53.74" y="-180.41" font-family="Times,serif" font-size="14.00" fill="#000000">74386</text>
</g>
<!-- node_74416&#45;&gt;node_74386 -->
<g id="edge4" class="edge">
<title>node_74416&#45;&gt;node_74386</title>
<path fill="none" stroke="black" d="M80.75,-245.22C76.21,-236.38 71.2,-226.62 66.74,-217.93"/>
<polygon fill="none" stroke="black" points="77.76,-247.06 85.44,-254.36 83.98,-243.86 77.76,-247.06"/>
</g>
<!-- node_74415 -->
<g id="node2" class="node">
<title>node_74415</title>
<ellipse fill="none" stroke="#000000" cx="94.74" cy="-26.87" rx="65.52" ry="26.74"/>
<text text-anchor="middle" x="94.74" y="-30.67" font-family="Times,serif" font-size="14.00" fill="#000000">index.html</text>
<text text-anchor="middle" x="94.74" y="-15.67" font-family="Times,serif" font-size="14.00" fill="#000000">74415</text>
</g>
<!-- node_74415&#45;&gt;node_74416 -->
<g id="edge1" class="edge">
<title>node_74415&#45;&gt;node_74416</title>
<path fill="none" stroke="black" d="M105.32,-63.36C115.28,-101.83 127.23,-164.91 116.74,-218.48 114.33,-230.8 109.09,-243.85 104.33,-254.04"/>
<polygon fill="none" stroke="black" points="108.69,-62.41 102.71,-53.66 101.93,-64.22 108.69,-62.41"/>
</g>
<!-- node_74387 -->
<g id="node3" class="node">
<title>node_74387</title>
<polygon fill="none" stroke="#0000ff" stroke-dasharray="5,2" points="96.74,-128.74 34.74,-128.74 34.74,-89.74 96.74,-89.74 96.74,-128.74"/>
<text text-anchor="middle" x="65.74" y="-97.54" font-family="Times,serif" font-size="14.00" fill="#000000">74387</text>
</g>
<!-- node_74387&#45;&gt;node_74415 -->
<g id="edge3" class="edge">
<title>node_74387&#45;&gt;node_74415</title>
<path fill="none" stroke="black" stroke-dasharray="1,5" d="M75.92,-80.02C79.01,-71.47 82.39,-62.11 85.41,-53.71"/>
<polygon fill="black" stroke="black" points="72.57,-79.01 72.47,-89.6 79.15,-81.38 72.57,-79.01"/>
</g>
<!-- node_74386&#45;&gt;node_74387 -->
<g id="edge2" class="edge">
<title>node_74386&#45;&gt;node_74387</title>
<path fill="none" stroke="black" d="M59.12,-154.57C60.44,-145.71 61.81,-136.58 62.95,-128.93"/>
<polygon fill="none" stroke="black" points="55.62,-154.33 57.6,-164.74 62.54,-155.36 55.62,-154.33"/>
</g>
</g>
</svg>
